{
  "rules": {
    "empty-directory": "nothing",
    "non-existent": "anything",
    "fixtures/fails": "some-expression",
    "fixtures/scripts": [
      "^fixtures/scripts/",
      "/[a-z]+\\.",
      "\\.js$"
    ]
  },
  "ignore": [
    "fixtures/scripts/ignored-folder",
    "fixtures/scripts/ignoredFile2.js"
  ]
}
